-7.928467954442559461e-07 2.152939434538175118e-04
-9.217848853554602598e-07 2.134995607542531412e-04
-3.705239462719718824e-07 2.137923169989277877e-04
2.775401860701168799e-07 2.144691787856828282e-04
-3.040206400642075698e-07 2.138785202851700370e-04
-2.142466275340550001e-06 2.138033586495017928e-04
-1.097848370870359616e-06 2.143731918852855630e-04
2.954561869001595504e-07 2.139102793157155119e-04
-2.315981464375262205e-07 2.146914817475868177e-04
-7.682786638587674393e-07 2.131973292208079625e-04
-3.763859602211631679e-07 2.146152745181072522e-04
-6.830662084985579781e-07 2.133443457877162730e-04
-7.628562606321598283e-07 2.836299577030370234e-04
-3.874979523640085544e-06 2.833206182476847006e-04
-4.586771143339085289e-07 2.846855956299125415e-04
-2.171625674492048058e-06 2.830869182819990989e-04
